Módulo 3: Enfoque Areal y Redes de Vecindad
…
print("Tabla final con la agregación territorial:")

[1] "Tabla final con la agregación territorial:"

print(conteo_unidades_comerciales)

Simple feature collection with 76 features and 2 fields
Geometry type: MULTIPOLYGON
Dimension:     XY
Bounding box:  xmin: 2745632 ymin: 774927.1 xmax: 2855437 ymax: 899488.5
Projected CRS: MEXICO_ITRF_2008_LCC
# A tibble: 76 × 3
   cvegeo total_comercios                                                   geom
   <chr>            <int>                                     <MULTIPOLYGON [m]>
 1 09002             2022 (((2792539 838006.9, 2792584 837993.5, 2792623 837981…
 2 09003             2871 (((2796293 820917, 2796384 820862, 2796413 820845.2, …
 3 09004              850 (((2787187 825728.2, 2787186 825721.4, 2787186 825702…
 4 09005             4824 (((2800966 846721.8, 2801109 846697.5, 2801229 846677…
 5 09006             1690 (((2808278 828072.2, 2808291 828067.6, 2808287 828047…
 6 09007             7166 (((2808094 825698.6, 2808094 825698.6, 2808094 825695…
 7 09008              817 (((2792551 818448.9, 2792587 818443.2, 2792560 818395…
 8 09009              569 (((2814707 806730.8, 2814776 806715, 2814865 806711.1…
 9 09010             2349 (((2794049 825747.8, 2794052 825695.1, 2794051 825679…
10 09011             1262 (((2814209 817700.9, 2814564 817691.1, 2815092 817676…
# ℹ 66 more rows
…
